{
  "variables": {
    "aws_access_key": "",
    "aws_secret_key": ""
  },
  "builders": [{
    "type": "amazon-ebs",
    "access_key": "{{user `aws_access_key`}}",
    "secret_key": "{{user `aws_secret_key`}}",
    "region": "us-west-2",
    "source_ami": "ami-98e114f8",
    "instance_type": "t2.micro",
    "ssh_username": "admin",
    "ami_name": "mig5-prod {{timestamp}}",
    "vpc_id": "vpc-CHANGEME",
    "subnet_id": "subnet-CHANGEME",
    "associate_public_ip_address": true
  }],
  "provisioners": [{
    "type": "shell",
    "scripts": [
      "scripts/puppet.sh"
    ]
  }, {
    "type": "puppet-masterless",
    "manifest_file": "puppet/mig5.pp",
    "module_paths": "puppet/modules"
  }, {
    "type": "shell",
    "scripts": [
      "scripts/puppet-uninstall.sh"
    ]
  }]
}
